cg_fti2  link_2_1
cg_fti1  link_1_2
cg_fti3  link_3_1
cg_fti1  link_1_3
cg_fti4  link_4_1
cg_fti1  link_1_4
cg_fti5  link_5_1
cg_fti1  link_1_5
cg_fti6  link_6_1
cg_fti1  link_1_6
cg_fti7  link_7_1
cg_fti1  link_1_7
cg_fti8  link_8_1
cg_fti1  link_1_8
cg_fti9  link_9_1
cg_fti1  link_1_9
cg_fti10  link_10_1
cg_fti1  link_1_10
cg_fti11  link_11_1
cg_fti1  link_1_11
cg_fti3  link_3_2
cg_fti2  link_2_3
cg_fti4  link_4_2
cg_fti2  link_2_4
cg_fti5  link_5_2
cg_fti2  link_2_5
cg_fti6  link_6_2
cg_fti2  link_2_6
cg_fti7  link_7_2
cg_fti2  link_2_7
cg_fti8  link_8_2
cg_fti2  link_2_8
cg_fti9  link_9_2
cg_fti2  link_2_9
cg_fti10  link_10_2
cg_fti2  link_2_10
cg_fti11  link_11_2
cg_fti2  link_2_11
cg_fti4  link_4_3
cg_fti3  link_3_4
cg_fti5  link_5_3
cg_fti3  link_3_5
cg_fti6  link_6_3
cg_fti3  link_3_6
cg_fti7  link_7_3
cg_fti3  link_3_7
cg_fti8  link_8_3
cg_fti3  link_3_8
cg_fti9  link_9_3
cg_fti3  link_3_9
cg_fti10  link_10_3
cg_fti3  link_3_10
cg_fti11  link_11_3
cg_fti3  link_3_11
cg_fti5  link_5_4
cg_fti4  link_4_5
cg_fti6  link_6_4
cg_fti4  link_4_6
cg_fti7  link_7_4
cg_fti4  link_4_7
cg_fti8  link_8_4
cg_fti4  link_4_8
cg_fti9  link_9_4
cg_fti4  link_4_9
cg_fti10  link_10_4
cg_fti4  link_4_10
cg_fti11  link_11_4
cg_fti4  link_4_11
cg_fti6  link_6_5
cg_fti5  link_5_6
cg_fti7  link_7_5
cg_fti5  link_5_7
cg_fti8  link_8_5
cg_fti5  link_5_8
cg_fti9  link_9_5
cg_fti5  link_5_9
cg_fti10  link_10_5
cg_fti5  link_5_10
cg_fti11  link_11_5
cg_fti5  link_5_11
cg_fti7  link_7_6
cg_fti6  link_6_7
cg_fti8  link_8_6
cg_fti6  link_6_8
cg_fti9  link_9_6
cg_fti6  link_6_9
cg_fti10  link_10_6
cg_fti6  link_6_10
cg_fti11  link_11_6
cg_fti6  link_6_11
cg_fti8  link_8_7
cg_fti7  link_7_8
cg_fti9  link_9_7
cg_fti7  link_7_9
cg_fti10  link_10_7
cg_fti7  link_7_10
cg_fti11  link_11_7
cg_fti7  link_7_11
cg_fti9  link_9_8
cg_fti8  link_8_9
cg_fti10  link_10_8
cg_fti8  link_8_10
cg_fti11  link_11_8
cg_fti8  link_8_11
cg_fti10  link_10_9
cg_fti9  link_9_10
cg_fti11  link_11_9
cg_fti9  link_9_11
cg_fti11  link_11_10
cg_fti10  link_10_11
